('C:\\Gestalabs\\Lab\\TEMP\\flaskgui\\build\\main\\PYZ-00.pyz',
 [('pkg_resources',
   'C:\\Gestalabs\\Lab\\TEMP\\flaskgui\\.venv\\lib\\site-packages\\pkg_resources\\__init__.py',
   'PYMODULE'),
  ('pkg_resources._vendor.packaging.tags',
   'C:\\Gestalabs\\Lab\\TEMP\\flaskgui\\.venv\\lib\\site-packages\\pkg_resources\\_vendor\\packaging\\tags.py',
   'PYMODULE'),
  ('ctypes',
   'c:\\users\\gl\\appdata\\local\\programs\\python\\python37\\lib\\ctypes\\__init__.py',
   'PYMODULE'),
  ('ctypes.wintypes',
   'c:\\users\\gl\\appdata\\local\\programs\\python\\python37\\lib\\ctypes\\wintypes.py',
   'PYMODULE'),
  ('ctypes._endian',
   'c:\\users\\gl\\appdata\\local\\programs\\python\\python37\\lib\\ctypes\\_endian.py',
   'PYMODULE'),
  ('typing',
   'c:\\users\\gl\\appdata\\local\\programs\\python\\python37\\lib\\typing.py',
   'PYMODULE'),
  ('contextlib',
   'c:\\users\\gl\\appdata\\local\\programs\\python\\python37\\lib\\contextlib.py',
   'PYMODULE'),
  ('struct',
   'c:\\users\\gl\\appdata\\local\\programs\\python\\python37\\lib\\struct.py',
   'PYMODULE'),
  ('logging',
   'c:\\users\\gl\\appdata\\local\\programs\\python\\python37\\lib\\logging\\__init__.py',
   'PYMODULE'),
  ('pickle',
   'c:\\users\\gl\\appdata\\local\\programs\\python\\python37\\lib\\pickle.py',
   'PYMODULE'),
  ('pprint',
   'c:\\users\\gl\\appdata\\local\\programs\\python\\python37\\lib\\pprint.py',
   'PYMODULE'),
  ('doctest',
   'c:\\users\\gl\\appdata\\local\\programs\\python\\python37\\lib\\doctest.py',
   'PYMODULE'),
  ('argparse',
   'c:\\users\\gl\\appdata\\local\\programs\\python\\python37\\lib\\argparse.py',
   'PYMODULE'),
  ('copy',
   'c:\\users\\gl\\appdata\\local\\programs\\python\\python37\\lib\\copy.py',
   'PYMODULE'),
  ('gettext',
   'c:\\users\\gl\\appdata\\local\\programs\\python\\python37\\lib\\gettext.py',
   'PYMODULE'),
  ('unittest',
   'c:\\users\\gl\\appdata\\local\\programs\\python\\python37\\lib\\unittest\\__init__.py',
   'PYMODULE'),
  ('unittest.signals',
   'c:\\users\\gl\\appdata\\local\\programs\\python\\python37\\lib\\unittest\\signals.py',
   'PYMODULE'),
  ('signal',
   'c:\\users\\gl\\appdata\\local\\programs\\python\\python37\\lib\\signal.py',
   'PYMODULE'),
  ('unittest.main',
   'c:\\users\\gl\\appdata\\local\\programs\\python\\python37\\lib\\unittest\\main.py',
   'PYMODULE'),
  ('unittest.runner',
   'c:\\users\\gl\\appdata\\local\\programs\\python\\python37\\lib\\unittest\\runner.py',
   'PYMODULE'),
  ('unittest.loader',
   'c:\\users\\gl\\appdata\\local\\programs\\python\\python37\\lib\\unittest\\loader.py',
   'PYMODULE'),
  ('fnmatch',
   'c:\\users\\gl\\appdata\\local\\programs\\python\\python37\\lib\\fnmatch.py',
   'PYMODULE'),
  ('unittest.suite',
   'c:\\users\\gl\\appdata\\local\\programs\\python\\python37\\lib\\unittest\\suite.py',
   'PYMODULE'),
  ('unittest.case',
   'c:\\users\\gl\\appdata\\local\\programs\\python\\python37\\lib\\unittest\\case.py',
   'PYMODULE'),
  ('unittest.result',
   'c:\\users\\gl\\appdata\\local\\programs\\python\\python37\\lib\\unittest\\result.py',
   'PYMODULE'),
  ('unittest.util',
   'c:\\users\\gl\\appdata\\local\\programs\\python\\python37\\lib\\unittest\\util.py',
   'PYMODULE'),
  ('pdb',
   'c:\\users\\gl\\appdata\\local\\programs\\python\\python37\\lib\\pdb.py',
   'PYMODULE'),
  ('getopt',
   'c:\\users\\gl\\appdata\\local\\programs\\python\\python37\\lib\\getopt.py',
   'PYMODULE'),
  ('pydoc',
   'c:\\users\\gl\\appdata\\local\\programs\\python\\python37\\lib\\pydoc.py',
   'PYMODULE'),
  ('webbrowser',
   'c:\\users\\gl\\appdata\\local\\programs\\python\\python37\\lib\\webbrowser.py',
   'PYMODULE'),
  ('socket',
   'c:\\users\\gl\\appdata\\local\\programs\\python\\python37\\lib\\socket.py',
   'PYMODULE'),
  ('selectors',
   'c:\\users\\gl\\appdata\\local\\programs\\python\\python37\\lib\\selectors.py',
   'PYMODULE'),
  ('shutil',
   'c:\\users\\gl\\appdata\\local\\programs\\python\\python37\\lib\\shutil.py',
   'PYMODULE'),
  ('tarfile',
   'c:\\users\\gl\\appdata\\local\\programs\\python\\python37\\lib\\tarfile.py',
   'PYMODULE'),
  ('gzip',
   'c:\\users\\gl\\appdata\\local\\programs\\python\\python37\\lib\\gzip.py',
   'PYMODULE'),
  ('_compression',
   'c:\\users\\gl\\appdata\\local\\programs\\python\\python37\\lib\\_compression.py',
   'PYMODULE'),
  ('lzma',
   'c:\\users\\gl\\appdata\\local\\programs\\python\\python37\\lib\\lzma.py',
   'PYMODULE'),
  ('bz2',
   'c:\\users\\gl\\appdata\\local\\programs\\python\\python37\\lib\\bz2.py',
   'PYMODULE'),
  ('email.message',
   'c:\\users\\gl\\appdata\\local\\programs\\python\\python37\\lib\\email\\message.py',
   'PYMODULE'),
  ('email.policy',
   'c:\\users\\gl\\appdata\\local\\programs\\python\\python37\\lib\\email\\policy.py',
   'PYMODULE'),
  ('email.contentmanager',
   'c:\\users\\gl\\appdata\\local\\programs\\python\\python37\\lib\\email\\contentmanager.py',
   'PYMODULE'),
  ('email.quoprimime',
   'c:\\users\\gl\\appdata\\local\\programs\\python\\python37\\lib\\email\\quoprimime.py',
   'PYMODULE'),
  ('email.headerregistry',
   'c:\\users\\gl\\appdata\\local\\programs\\python\\python37\\lib\\email\\headerregistry.py',
   'PYMODULE'),
  ('email._header_value_parser',
   'c:\\users\\gl\\appdata\\local\\programs\\python\\python37\\lib\\email\\_header_value_parser.py',
   'PYMODULE'),
  ('urllib',
   'c:\\users\\gl\\appdata\\local\\programs\\python\\python37\\lib\\urllib\\__init__.py',
   'PYMODULE'),
  ('email.iterators',
   'c:\\users\\gl\\appdata\\local\\programs\\python\\python37\\lib\\email\\iterators.py',
   'PYMODULE'),
  ('email.generator',
   'c:\\users\\gl\\appdata\\local\\programs\\python\\python37\\lib\\email\\generator.py',
   'PYMODULE'),
  ('random',
   'c:\\users\\gl\\appdata\\local\\programs\\python\\python37\\lib\\random.py',
   'PYMODULE'),
  ('bisect',
   'c:\\users\\gl\\appdata\\local\\programs\\python\\python37\\lib\\bisect.py',
   'PYMODULE'),
  ('hashlib',
   'c:\\users\\gl\\appdata\\local\\programs\\python\\python37\\lib\\hashlib.py',
   'PYMODULE'),
  ('email._encoded_words',
   'c:\\users\\gl\\appdata\\local\\programs\\python\\python37\\lib\\email\\_encoded_words.py',
   'PYMODULE'),
  ('base64',
   'c:\\users\\gl\\appdata\\local\\programs\\python\\python37\\lib\\base64.py',
   'PYMODULE'),
  ('email.charset',
   'c:\\users\\gl\\appdata\\local\\programs\\python\\python37\\lib\\email\\charset.py',
   'PYMODULE'),
  ('email.encoders',
   'c:\\users\\gl\\appdata\\local\\programs\\python\\python37\\lib\\email\\encoders.py',
   'PYMODULE'),
  ('email.base64mime',
   'c:\\users\\gl\\appdata\\local\\programs\\python\\python37\\lib\\email\\base64mime.py',
   'PYMODULE'),
  ('email._policybase',
   'c:\\users\\gl\\appdata\\local\\programs\\python\\python37\\lib\\email\\_policybase.py',
   'PYMODULE'),
  ('email.header',
   'c:\\users\\gl\\appdata\\local\\programs\\python\\python37\\lib\\email\\header.py',
   'PYMODULE'),
  ('email.errors',
   'c:\\users\\gl\\appdata\\local\\programs\\python\\python37\\lib\\email\\errors.py',
   'PYMODULE'),
  ('email.utils',
   'c:\\users\\gl\\appdata\\local\\programs\\python\\python37\\lib\\email\\utils.py',
   'PYMODULE'),
  ('email._parseaddr',
   'c:\\users\\gl\\appdata\\local\\programs\\python\\python37\\lib\\email\\_parseaddr.py',
   'PYMODULE'),
  ('calendar',
   'c:\\users\\gl\\appdata\\local\\programs\\python\\python37\\lib\\calendar.py',
   'PYMODULE'),
  ('datetime',
   'c:\\users\\gl\\appdata\\local\\programs\\python\\python37\\lib\\datetime.py',
   'PYMODULE'),
  ('_strptime',
   'c:\\users\\gl\\appdata\\local\\programs\\python\\python37\\lib\\_strptime.py',
   'PYMODULE'),
  ('email',
   'c:\\users\\gl\\appdata\\local\\programs\\python\\python37\\lib\\email\\__init__.py',
   'PYMODULE'),
  ('quopri',
   'c:\\users\\gl\\appdata\\local\\programs\\python\\python37\\lib\\quopri.py',
   'PYMODULE'),
  ('uu',
   'c:\\users\\gl\\appdata\\local\\programs\\python\\python37\\lib\\uu.py',
   'PYMODULE'),
  ('optparse',
   'c:\\users\\gl\\appdata\\local\\programs\\python\\python37\\lib\\optparse.py',
   'PYMODULE'),
  ('http.server',
   'c:\\users\\gl\\appdata\\local\\programs\\python\\python37\\lib\\http\\server.py',
   'PYMODULE'),
  ('http',
   'c:\\users\\gl\\appdata\\local\\programs\\python\\python37\\lib\\http\\__init__.py',
   'PYMODULE'),
  ('socketserver',
   'c:\\users\\gl\\appdata\\local\\programs\\python\\python37\\lib\\socketserver.py',
   'PYMODULE'),
  ('mimetypes',
   'c:\\users\\gl\\appdata\\local\\programs\\python\\python37\\lib\\mimetypes.py',
   'PYMODULE'),
  ('http.client',
   'c:\\users\\gl\\appdata\\local\\programs\\python\\python37\\lib\\http\\client.py',
   'PYMODULE'),
  ('ssl',
   'c:\\users\\gl\\appdata\\local\\programs\\python\\python37\\lib\\ssl.py',
   'PYMODULE'),
  ('html',
   'c:\\users\\gl\\appdata\\local\\programs\\python\\python37\\lib\\html\\__init__.py',
   'PYMODULE'),
  ('html.entities',
   'c:\\users\\gl\\appdata\\local\\programs\\python\\python37\\lib\\html\\entities.py',
   'PYMODULE'),
  ('pydoc_data.topics',
   'c:\\users\\gl\\appdata\\local\\programs\\python\\python37\\lib\\pydoc_data\\topics.py',
   'PYMODULE'),
  ('pydoc_data',
   'c:\\users\\gl\\appdata\\local\\programs\\python\\python37\\lib\\pydoc_data\\__init__.py',
   'PYMODULE'),
  ('tty',
   'c:\\users\\gl\\appdata\\local\\programs\\python\\python37\\lib\\tty.py',
   'PYMODULE'),
  ('subprocess',
   'c:\\users\\gl\\appdata\\local\\programs\\python\\python37\\lib\\subprocess.py',
   'PYMODULE'),
  ('urllib.parse',
   'c:\\users\\gl\\appdata\\local\\programs\\python\\python37\\lib\\urllib\\parse.py',
   'PYMODULE'),
  ('tokenize',
   'c:\\users\\gl\\appdata\\local\\programs\\python\\python37\\lib\\tokenize.py',
   'PYMODULE'),
  ('token',
   'c:\\users\\gl\\appdata\\local\\programs\\python\\python37\\lib\\token.py',
   'PYMODULE'),
  ('importlib.util',
   'c:\\users\\gl\\appdata\\local\\programs\\python\\python37\\lib\\importlib\\util.py',
   'PYMODULE'),
  ('importlib.abc',
   'c:\\users\\gl\\appdata\\local\\programs\\python\\python37\\lib\\importlib\\abc.py',
   'PYMODULE'),
  ('importlib._bootstrap_external',
   'c:\\users\\gl\\appdata\\local\\programs\\python\\python37\\lib\\importlib\\_bootstrap_external.py',
   'PYMODULE'),
  ('importlib._bootstrap',
   'c:\\users\\gl\\appdata\\local\\programs\\python\\python37\\lib\\importlib\\_bootstrap.py',
   'PYMODULE'),
  ('runpy',
   'c:\\users\\gl\\appdata\\local\\programs\\python\\python37\\lib\\runpy.py',
   'PYMODULE'),
  ('shlex',
   'c:\\users\\gl\\appdata\\local\\programs\\python\\python37\\lib\\shlex.py',
   'PYMODULE'),
  ('glob',
   'c:\\users\\gl\\appdata\\local\\programs\\python\\python37\\lib\\glob.py',
   'PYMODULE'),
  ('code',
   'c:\\users\\gl\\appdata\\local\\programs\\python\\python37\\lib\\code.py',
   'PYMODULE'),
  ('codeop',
   'c:\\users\\gl\\appdata\\local\\programs\\python\\python37\\lib\\codeop.py',
   'PYMODULE'),
  ('dis',
   'c:\\users\\gl\\appdata\\local\\programs\\python\\python37\\lib\\dis.py',
   'PYMODULE'),
  ('opcode',
   'c:\\users\\gl\\appdata\\local\\programs\\python\\python37\\lib\\opcode.py',
   'PYMODULE'),
  ('bdb',
   'c:\\users\\gl\\appdata\\local\\programs\\python\\python37\\lib\\bdb.py',
   'PYMODULE'),
  ('cmd',
   'c:\\users\\gl\\appdata\\local\\programs\\python\\python37\\lib\\cmd.py',
   'PYMODULE'),
  ('difflib',
   'c:\\users\\gl\\appdata\\local\\programs\\python\\python37\\lib\\difflib.py',
   'PYMODULE'),
  ('_compat_pickle',
   'c:\\users\\gl\\appdata\\local\\programs\\python\\python37\\lib\\_compat_pickle.py',
   'PYMODULE'),
  ('threading',
   'c:\\users\\gl\\appdata\\local\\programs\\python\\python37\\lib\\threading.py',
   'PYMODULE'),
  ('_threading_local',
   'c:\\users\\gl\\appdata\\local\\programs\\python\\python37\\lib\\_threading_local.py',
   'PYMODULE'),
  ('string',
   'c:\\users\\gl\\appdata\\local\\programs\\python\\python37\\lib\\string.py',
   'PYMODULE'),
  ('distutils.util',
   'c:\\users\\gl\\appdata\\local\\programs\\python\\python37\\lib\\distutils\\util.py',
   'PYMODULE'),
  ('distutils.filelist',
   'c:\\users\\gl\\appdata\\local\\programs\\python\\python37\\lib\\distutils\\filelist.py',
   'PYMODULE'),
  ('distutils.debug',
   'c:\\users\\gl\\appdata\\local\\programs\\python\\python37\\lib\\distutils\\debug.py',
   'PYMODULE'),
  ('distutils.file_util',
   'c:\\users\\gl\\appdata\\local\\programs\\python\\python37\\lib\\distutils\\file_util.py',
   'PYMODULE'),
  ('distutils.dir_util',
   'c:\\users\\gl\\appdata\\local\\programs\\python\\python37\\lib\\distutils\\dir_util.py',
   'PYMODULE'),
  ('py_compile',
   'c:\\users\\gl\\appdata\\local\\programs\\python\\python37\\lib\\py_compile.py',
   'PYMODULE'),
  ('distutils.sysconfig',
   'c:\\users\\gl\\appdata\\local\\programs\\python\\python37\\lib\\distutils\\sysconfig.py',
   'PYMODULE'),
  ('distutils.text_file',
   'c:\\users\\gl\\appdata\\local\\programs\\python\\python37\\lib\\distutils\\text_file.py',
   'PYMODULE'),
  ('_osx_support',
   'c:\\users\\gl\\appdata\\local\\programs\\python\\python37\\lib\\_osx_support.py',
   'PYMODULE'),
  ('distutils.log',
   'c:\\users\\gl\\appdata\\local\\programs\\python\\python37\\lib\\distutils\\log.py',
   'PYMODULE'),
  ('distutils',
   'c:\\users\\gl\\appdata\\local\\programs\\python\\python37\\lib\\distutils\\__init__.py',
   'PYMODULE'),
  ('distutils.ccompiler',
   'c:\\users\\gl\\appdata\\local\\programs\\python\\python37\\lib\\distutils\\ccompiler.py',
   'PYMODULE'),
  ('distutils.fancy_getopt',
   'c:\\users\\gl\\appdata\\local\\programs\\python\\python37\\lib\\distutils\\fancy_getopt.py',
   'PYMODULE'),
  ('distutils.spawn',
   'c:\\users\\gl\\appdata\\local\\programs\\python\\python37\\lib\\distutils\\spawn.py',
   'PYMODULE'),
  ('distutils.dep_util',
   'c:\\users\\gl\\appdata\\local\\programs\\python\\python37\\lib\\distutils\\dep_util.py',
   'PYMODULE'),
  ('distutils.errors',
   'c:\\users\\gl\\appdata\\local\\programs\\python\\python37\\lib\\distutils\\errors.py',
   'PYMODULE'),
  ('__future__',
   'c:\\users\\gl\\appdata\\local\\programs\\python\\python37\\lib\\__future__.py',
   'PYMODULE'),
  ('pkg_resources._vendor.packaging.specifiers',
   'C:\\Gestalabs\\Lab\\TEMP\\flaskgui\\.venv\\lib\\site-packages\\pkg_resources\\_vendor\\packaging\\specifiers.py',
   'PYMODULE'),
  ('pkg_resources._vendor.packaging',
   'C:\\Gestalabs\\Lab\\TEMP\\flaskgui\\.venv\\lib\\site-packages\\pkg_resources\\_vendor\\packaging\\__init__.py',
   'PYMODULE'),
  ('pkg_resources._vendor.packaging.__about__',
   'C:\\Gestalabs\\Lab\\TEMP\\flaskgui\\.venv\\lib\\site-packages\\pkg_resources\\_vendor\\packaging\\__about__.py',
   'PYMODULE'),
  ('pkg_resources._vendor.packaging.utils',
   'C:\\Gestalabs\\Lab\\TEMP\\flaskgui\\.venv\\lib\\site-packages\\pkg_resources\\_vendor\\packaging\\utils.py',
   'PYMODULE'),
  ('pkg_resources._vendor.packaging.version',
   'C:\\Gestalabs\\Lab\\TEMP\\flaskgui\\.venv\\lib\\site-packages\\pkg_resources\\_vendor\\packaging\\version.py',
   'PYMODULE'),
  ('pkg_resources._vendor.packaging._structures',
   'C:\\Gestalabs\\Lab\\TEMP\\flaskgui\\.venv\\lib\\site-packages\\pkg_resources\\_vendor\\packaging\\_structures.py',
   'PYMODULE'),
  ('pkg_resources._vendor.packaging._compat',
   'C:\\Gestalabs\\Lab\\TEMP\\flaskgui\\.venv\\lib\\site-packages\\pkg_resources\\_vendor\\packaging\\_compat.py',
   'PYMODULE'),
  ('pkg_resources._vendor.appdirs',
   'C:\\Gestalabs\\Lab\\TEMP\\flaskgui\\.venv\\lib\\site-packages\\pkg_resources\\_vendor\\appdirs.py',
   'PYMODULE'),
  ('pkg_resources._vendor',
   'C:\\Gestalabs\\Lab\\TEMP\\flaskgui\\.venv\\lib\\site-packages\\pkg_resources\\_vendor\\__init__.py',
   'PYMODULE'),
  ('pkg_resources._vendor.packaging.markers',
   'C:\\Gestalabs\\Lab\\TEMP\\flaskgui\\.venv\\lib\\site-packages\\pkg_resources\\_vendor\\packaging\\markers.py',
   'PYMODULE'),
  ('pkg_resources._vendor.packaging._typing',
   'C:\\Gestalabs\\Lab\\TEMP\\flaskgui\\.venv\\lib\\site-packages\\pkg_resources\\_vendor\\packaging\\_typing.py',
   'PYMODULE'),
  ('pkg_resources._vendor.packaging.requirements',
   'C:\\Gestalabs\\Lab\\TEMP\\flaskgui\\.venv\\lib\\site-packages\\pkg_resources\\_vendor\\packaging\\requirements.py',
   'PYMODULE'),
  ('pkg_resources._vendor.pyparsing',
   'C:\\Gestalabs\\Lab\\TEMP\\flaskgui\\.venv\\lib\\site-packages\\pkg_resources\\_vendor\\pyparsing.py',
   'PYMODULE'),
  ('uuid',
   'c:\\users\\gl\\appdata\\local\\programs\\python\\python37\\lib\\uuid.py',
   'PYMODULE'),
  ('ctypes.util',
   'c:\\users\\gl\\appdata\\local\\programs\\python\\python37\\lib\\ctypes\\util.py',
   'PYMODULE'),
  ('ctypes._aix',
   'c:\\users\\gl\\appdata\\local\\programs\\python\\python37\\lib\\ctypes\\_aix.py',
   'PYMODULE'),
  ('ctypes.macholib.dyld',
   'c:\\users\\gl\\appdata\\local\\programs\\python\\python37\\lib\\ctypes\\macholib\\dyld.py',
   'PYMODULE'),
  ('ctypes.macholib',
   'c:\\users\\gl\\appdata\\local\\programs\\python\\python37\\lib\\ctypes\\macholib\\__init__.py',
   'PYMODULE'),
  ('ctypes.macholib.dylib',
   'c:\\users\\gl\\appdata\\local\\programs\\python\\python37\\lib\\ctypes\\macholib\\dylib.py',
   'PYMODULE'),
  ('ctypes.macholib.framework',
   'c:\\users\\gl\\appdata\\local\\programs\\python\\python37\\lib\\ctypes\\macholib\\framework.py',
   'PYMODULE'),
  ('sysconfig',
   'c:\\users\\gl\\appdata\\local\\programs\\python\\python37\\lib\\sysconfig.py',
   'PYMODULE'),
  ('pkg_resources.extern',
   'C:\\Gestalabs\\Lab\\TEMP\\flaskgui\\.venv\\lib\\site-packages\\pkg_resources\\extern\\__init__.py',
   'PYMODULE'),
  ('importlib.machinery',
   'c:\\users\\gl\\appdata\\local\\programs\\python\\python37\\lib\\importlib\\machinery.py',
   'PYMODULE'),
  ('imp',
   'c:\\users\\gl\\appdata\\local\\programs\\python\\python37\\lib\\imp.py',
   'PYMODULE'),
  ('importlib',
   'c:\\users\\gl\\appdata\\local\\programs\\python\\python37\\lib\\importlib\\__init__.py',
   'PYMODULE'),
  ('posixpath',
   'c:\\users\\gl\\appdata\\local\\programs\\python\\python37\\lib\\posixpath.py',
   'PYMODULE'),
  ('genericpath',
   'c:\\users\\gl\\appdata\\local\\programs\\python\\python37\\lib\\genericpath.py',
   'PYMODULE'),
  ('ntpath',
   'c:\\users\\gl\\appdata\\local\\programs\\python\\python37\\lib\\ntpath.py',
   'PYMODULE'),
  ('inspect',
   'c:\\users\\gl\\appdata\\local\\programs\\python\\python37\\lib\\inspect.py',
   'PYMODULE'),
  ('ast',
   'c:\\users\\gl\\appdata\\local\\programs\\python\\python37\\lib\\ast.py',
   'PYMODULE'),
  ('textwrap',
   'c:\\users\\gl\\appdata\\local\\programs\\python\\python37\\lib\\textwrap.py',
   'PYMODULE'),
  ('tempfile',
   'c:\\users\\gl\\appdata\\local\\programs\\python\\python37\\lib\\tempfile.py',
   'PYMODULE'),
  ('email.parser',
   'c:\\users\\gl\\appdata\\local\\programs\\python\\python37\\lib\\email\\parser.py',
   'PYMODULE'),
  ('email.feedparser',
   'c:\\users\\gl\\appdata\\local\\programs\\python\\python37\\lib\\email\\feedparser.py',
   'PYMODULE'),
  ('plistlib',
   'c:\\users\\gl\\appdata\\local\\programs\\python\\python37\\lib\\plistlib.py',
   'PYMODULE'),
  ('xml.parsers.expat',
   'c:\\users\\gl\\appdata\\local\\programs\\python\\python37\\lib\\xml\\parsers\\expat.py',
   'PYMODULE'),
  ('xml.parsers',
   'c:\\users\\gl\\appdata\\local\\programs\\python\\python37\\lib\\xml\\parsers\\__init__.py',
   'PYMODULE'),
  ('xml',
   'c:\\users\\gl\\appdata\\local\\programs\\python\\python37\\lib\\xml\\__init__.py',
   'PYMODULE'),
  ('xml.sax.expatreader',
   'c:\\users\\gl\\appdata\\local\\programs\\python\\python37\\lib\\xml\\sax\\expatreader.py',
   'PYMODULE'),
  ('xml.sax.saxutils',
   'c:\\users\\gl\\appdata\\local\\programs\\python\\python37\\lib\\xml\\sax\\saxutils.py',
   'PYMODULE'),
  ('urllib.request',
   'c:\\users\\gl\\appdata\\local\\programs\\python\\python37\\lib\\urllib\\request.py',
   'PYMODULE'),
  ('getpass',
   'c:\\users\\gl\\appdata\\local\\programs\\python\\python37\\lib\\getpass.py',
   'PYMODULE'),
  ('nturl2path',
   'c:\\users\\gl\\appdata\\local\\programs\\python\\python37\\lib\\nturl2path.py',
   'PYMODULE'),
  ('ftplib',
   'c:\\users\\gl\\appdata\\local\\programs\\python\\python37\\lib\\ftplib.py',
   'PYMODULE'),
  ('netrc',
   'c:\\users\\gl\\appdata\\local\\programs\\python\\python37\\lib\\netrc.py',
   'PYMODULE'),
  ('http.cookiejar',
   'c:\\users\\gl\\appdata\\local\\programs\\python\\python37\\lib\\http\\cookiejar.py',
   'PYMODULE'),
  ('urllib.response',
   'c:\\users\\gl\\appdata\\local\\programs\\python\\python37\\lib\\urllib\\response.py',
   'PYMODULE'),
  ('urllib.error',
   'c:\\users\\gl\\appdata\\local\\programs\\python\\python37\\lib\\urllib\\error.py',
   'PYMODULE'),
  ('xml.sax',
   'c:\\users\\gl\\appdata\\local\\programs\\python\\python37\\lib\\xml\\sax\\__init__.py',
   'PYMODULE'),
  ('xml.sax.handler',
   'c:\\users\\gl\\appdata\\local\\programs\\python\\python37\\lib\\xml\\sax\\handler.py',
   'PYMODULE'),
  ('xml.sax._exceptions',
   'c:\\users\\gl\\appdata\\local\\programs\\python\\python37\\lib\\xml\\sax\\_exceptions.py',
   'PYMODULE'),
  ('xml.sax.xmlreader',
   'c:\\users\\gl\\appdata\\local\\programs\\python\\python37\\lib\\xml\\sax\\xmlreader.py',
   'PYMODULE'),
  ('platform',
   'c:\\users\\gl\\appdata\\local\\programs\\python\\python37\\lib\\platform.py',
   'PYMODULE'),
  ('pkgutil',
   'c:\\users\\gl\\appdata\\local\\programs\\python\\python37\\lib\\pkgutil.py',
   'PYMODULE'),
  ('stat',
   'c:\\users\\gl\\appdata\\local\\programs\\python\\python37\\lib\\stat.py',
   'PYMODULE'),
  ('zipfile',
   'c:\\users\\gl\\appdata\\local\\programs\\python\\python37\\lib\\zipfile.py',
   'PYMODULE'),
  ('pathlib',
   'c:\\users\\gl\\appdata\\local\\programs\\python\\python37\\lib\\pathlib.py',
   'PYMODULE'),
  ('os',
   'c:\\users\\gl\\appdata\\local\\programs\\python\\python37\\lib\\os.py',
   'PYMODULE'),
  ('multiprocessing.popen_spawn_posix',
   'c:\\users\\gl\\appdata\\local\\programs\\python\\python37\\lib\\multiprocessing\\popen_spawn_posix.py',
   'PYMODULE'),
  ('multiprocessing.semaphore_tracker',
   'c:\\users\\gl\\appdata\\local\\programs\\python\\python37\\lib\\multiprocessing\\semaphore_tracker.py',
   'PYMODULE'),
  ('multiprocessing.util',
   'c:\\users\\gl\\appdata\\local\\programs\\python\\python37\\lib\\multiprocessing\\util.py',
   'PYMODULE'),
  ('multiprocessing.forkserver',
   'c:\\users\\gl\\appdata\\local\\programs\\python\\python37\\lib\\multiprocessing\\forkserver.py',
   'PYMODULE'),
  ('multiprocessing.connection',
   'c:\\users\\gl\\appdata\\local\\programs\\python\\python37\\lib\\multiprocessing\\connection.py',
   'PYMODULE'),
  ('multiprocessing.resource_sharer',
   'c:\\users\\gl\\appdata\\local\\programs\\python\\python37\\lib\\multiprocessing\\resource_sharer.py',
   'PYMODULE'),
  ('xmlrpc.client',
   'c:\\users\\gl\\appdata\\local\\programs\\python\\python37\\lib\\xmlrpc\\client.py',
   'PYMODULE'),
  ('xmlrpc',
   'c:\\users\\gl\\appdata\\local\\programs\\python\\python37\\lib\\xmlrpc\\__init__.py',
   'PYMODULE'),
  ('decimal',
   'c:\\users\\gl\\appdata\\local\\programs\\python\\python37\\lib\\decimal.py',
   'PYMODULE'),
  ('_pydecimal',
   'c:\\users\\gl\\appdata\\local\\programs\\python\\python37\\lib\\_pydecimal.py',
   'PYMODULE'),
  ('contextvars',
   'c:\\users\\gl\\appdata\\local\\programs\\python\\python37\\lib\\contextvars.py',
   'PYMODULE'),
  ('numbers',
   'c:\\users\\gl\\appdata\\local\\programs\\python\\python37\\lib\\numbers.py',
   'PYMODULE'),
  ('hmac',
   'c:\\users\\gl\\appdata\\local\\programs\\python\\python37\\lib\\hmac.py',
   'PYMODULE'),
  ('multiprocessing.process',
   'c:\\users\\gl\\appdata\\local\\programs\\python\\python37\\lib\\multiprocessing\\process.py',
   'PYMODULE'),
  ('multiprocessing.context',
   'c:\\users\\gl\\appdata\\local\\programs\\python\\python37\\lib\\multiprocessing\\context.py',
   'PYMODULE'),
  ('multiprocessing.popen_forkserver',
   'c:\\users\\gl\\appdata\\local\\programs\\python\\python37\\lib\\multiprocessing\\popen_forkserver.py',
   'PYMODULE'),
  ('multiprocessing.sharedctypes',
   'c:\\users\\gl\\appdata\\local\\programs\\python\\python37\\lib\\multiprocessing\\sharedctypes.py',
   'PYMODULE'),
  ('multiprocessing.heap',
   'c:\\users\\gl\\appdata\\local\\programs\\python\\python37\\lib\\multiprocessing\\heap.py',
   'PYMODULE'),
  ('multiprocessing.pool',
   'c:\\users\\gl\\appdata\\local\\programs\\python\\python37\\lib\\multiprocessing\\pool.py',
   'PYMODULE'),
  ('multiprocessing.dummy',
   'c:\\users\\gl\\appdata\\local\\programs\\python\\python37\\lib\\multiprocessing\\dummy\\__init__.py',
   'PYMODULE'),
  ('multiprocessing.dummy.connection',
   'c:\\users\\gl\\appdata\\local\\programs\\python\\python37\\lib\\multiprocessing\\dummy\\connection.py',
   'PYMODULE'),
  ('queue',
   'c:\\users\\gl\\appdata\\local\\programs\\python\\python37\\lib\\queue.py',
   'PYMODULE'),
  ('multiprocessing.queues',
   'c:\\users\\gl\\appdata\\local\\programs\\python\\python37\\lib\\multiprocessing\\queues.py',
   'PYMODULE'),
  ('multiprocessing.synchronize',
   'c:\\users\\gl\\appdata\\local\\programs\\python\\python37\\lib\\multiprocessing\\synchronize.py',
   'PYMODULE'),
  ('multiprocessing.managers',
   'c:\\users\\gl\\appdata\\local\\programs\\python\\python37\\lib\\multiprocessing\\managers.py',
   'PYMODULE'),
  ('multiprocessing.reduction',
   'c:\\users\\gl\\appdata\\local\\programs\\python\\python37\\lib\\multiprocessing\\reduction.py',
   'PYMODULE'),
  ('multiprocessing.popen_fork',
   'c:\\users\\gl\\appdata\\local\\programs\\python\\python37\\lib\\multiprocessing\\popen_fork.py',
   'PYMODULE'),
  ('multiprocessing.popen_spawn_win32',
   'c:\\users\\gl\\appdata\\local\\programs\\python\\python37\\lib\\multiprocessing\\popen_spawn_win32.py',
   'PYMODULE'),
  ('multiprocessing.spawn',
   'c:\\users\\gl\\appdata\\local\\programs\\python\\python37\\lib\\multiprocessing\\spawn.py',
   'PYMODULE'),
  ('multiprocessing',
   'c:\\users\\gl\\appdata\\local\\programs\\python\\python37\\lib\\multiprocessing\\__init__.py',
   'PYMODULE'),
  ('_py_abc',
   'c:\\users\\gl\\appdata\\local\\programs\\python\\python37\\lib\\_py_abc.py',
   'PYMODULE'),
  ('stringprep',
   'c:\\users\\gl\\appdata\\local\\programs\\python\\python37\\lib\\stringprep.py',
   'PYMODULE'),
  ('tracemalloc',
   'c:\\users\\gl\\appdata\\local\\programs\\python\\python37\\lib\\tracemalloc.py',
   'PYMODULE'),
  ('pyfladesk',
   'C:\\Gestalabs\\Lab\\TEMP\\flaskgui\\.venv\\lib\\site-packages\\pyfladesk\\__init__.py',
   'PYMODULE'),
  ('PyQt5',
   'C:\\Gestalabs\\Lab\\TEMP\\flaskgui\\.venv\\lib\\site-packages\\PyQt5\\__init__.py',
   'PYMODULE'),
  ('flask',
   'C:\\Gestalabs\\Lab\\TEMP\\flaskgui\\.venv\\lib\\site-packages\\flask\\__init__.py',
   'PYMODULE'),
  ('flask.templating',
   'C:\\Gestalabs\\Lab\\TEMP\\flaskgui\\.venv\\lib\\site-packages\\flask\\templating.py',
   'PYMODULE'),
  ('flask.debughelpers',
   'C:\\Gestalabs\\Lab\\TEMP\\flaskgui\\.venv\\lib\\site-packages\\flask\\debughelpers.py',
   'PYMODULE'),
  ('flask.scaffold',
   'C:\\Gestalabs\\Lab\\TEMP\\flaskgui\\.venv\\lib\\site-packages\\flask\\scaffold.py',
   'PYMODULE'),
  ('flask.wrappers',
   'C:\\Gestalabs\\Lab\\TEMP\\flaskgui\\.venv\\lib\\site-packages\\flask\\wrappers.py',
   'PYMODULE'),
  ('werkzeug.routing',
   'C:\\Gestalabs\\Lab\\TEMP\\flaskgui\\.venv\\lib\\site-packages\\werkzeug\\routing.py',
   'PYMODULE'),
  ('werkzeug',
   'C:\\Gestalabs\\Lab\\TEMP\\flaskgui\\.venv\\lib\\site-packages\\werkzeug\\__init__.py',
   'PYMODULE'),
  ('werkzeug.test',
   'C:\\Gestalabs\\Lab\\TEMP\\flaskgui\\.venv\\lib\\site-packages\\werkzeug\\test.py',
   'PYMODULE'),
  ('werkzeug.wrappers.request',
   'C:\\Gestalabs\\Lab\\TEMP\\flaskgui\\.venv\\lib\\site-packages\\werkzeug\\wrappers\\request.py',
   'PYMODULE'),
  ('werkzeug.sansio.request',
   'C:\\Gestalabs\\Lab\\TEMP\\flaskgui\\.venv\\lib\\site-packages\\werkzeug\\sansio\\request.py',
   'PYMODULE'),
  ('werkzeug.sansio',
   'C:\\Gestalabs\\Lab\\TEMP\\flaskgui\\.venv\\lib\\site-packages\\werkzeug\\sansio\\__init__.py',
   'PYMODULE'),
  ('werkzeug.sansio.utils',
   'C:\\Gestalabs\\Lab\\TEMP\\flaskgui\\.venv\\lib\\site-packages\\werkzeug\\sansio\\utils.py',
   'PYMODULE'),
  ('werkzeug.useragents',
   'C:\\Gestalabs\\Lab\\TEMP\\flaskgui\\.venv\\lib\\site-packages\\werkzeug\\useragents.py',
   'PYMODULE'),
  ('werkzeug.user_agent',
   'C:\\Gestalabs\\Lab\\TEMP\\flaskgui\\.venv\\lib\\site-packages\\werkzeug\\user_agent.py',
   'PYMODULE'),
  ('werkzeug.formparser',
   'C:\\Gestalabs\\Lab\\TEMP\\flaskgui\\.venv\\lib\\site-packages\\werkzeug\\formparser.py',
   'PYMODULE'),
  ('werkzeug.sansio.multipart',
   'C:\\Gestalabs\\Lab\\TEMP\\flaskgui\\.venv\\lib\\site-packages\\werkzeug\\sansio\\multipart.py',
   'PYMODULE'),
  ('dataclasses',
   'c:\\users\\gl\\appdata\\local\\programs\\python\\python37\\lib\\dataclasses.py',
   'PYMODULE'),
  ('werkzeug.http',
   'C:\\Gestalabs\\Lab\\TEMP\\flaskgui\\.venv\\lib\\site-packages\\werkzeug\\http.py',
   'PYMODULE'),
  ('werkzeug.serving',
   'C:\\Gestalabs\\Lab\\TEMP\\flaskgui\\.venv\\lib\\site-packages\\werkzeug\\serving.py',
   'PYMODULE'),
  ('werkzeug._reloader',
   'C:\\Gestalabs\\Lab\\TEMP\\flaskgui\\.venv\\lib\\site-packages\\werkzeug\\_reloader.py',
   'PYMODULE'),
  ('werkzeug.middleware.shared_data',
   'C:\\Gestalabs\\Lab\\TEMP\\flaskgui\\.venv\\lib\\site-packages\\werkzeug\\middleware\\shared_data.py',
   'PYMODULE'),
  ('werkzeug.middleware',
   'C:\\Gestalabs\\Lab\\TEMP\\flaskgui\\.venv\\lib\\site-packages\\werkzeug\\middleware\\__init__.py',
   'PYMODULE'),
  ('werkzeug.security',
   'C:\\Gestalabs\\Lab\\TEMP\\flaskgui\\.venv\\lib\\site-packages\\werkzeug\\security.py',
   'PYMODULE'),
  ('secrets',
   'c:\\users\\gl\\appdata\\local\\programs\\python\\python37\\lib\\secrets.py',
   'PYMODULE'),
  ('werkzeug.filesystem',
   'C:\\Gestalabs\\Lab\\TEMP\\flaskgui\\.venv\\lib\\site-packages\\werkzeug\\filesystem.py',
   'PYMODULE'),
  ('werkzeug.debug',
   'C:\\Gestalabs\\Lab\\TEMP\\flaskgui\\.venv\\lib\\site-packages\\werkzeug\\debug\\__init__.py',
   'PYMODULE'),
  ('werkzeug.debug.console',
   'C:\\Gestalabs\\Lab\\TEMP\\flaskgui\\.venv\\lib\\site-packages\\werkzeug\\debug\\console.py',
   'PYMODULE'),
  ('werkzeug.debug.repr',
   'C:\\Gestalabs\\Lab\\TEMP\\flaskgui\\.venv\\lib\\site-packages\\werkzeug\\debug\\repr.py',
   'PYMODULE'),
  ('werkzeug.local',
   'C:\\Gestalabs\\Lab\\TEMP\\flaskgui\\.venv\\lib\\site-packages\\werkzeug\\local.py',
   'PYMODULE'),
  ('werkzeug.debug.tbtools',
   'C:\\Gestalabs\\Lab\\TEMP\\flaskgui\\.venv\\lib\\site-packages\\werkzeug\\debug\\tbtools.py',
   'PYMODULE'),
  ('werkzeug.wrappers.response',
   'C:\\Gestalabs\\Lab\\TEMP\\flaskgui\\.venv\\lib\\site-packages\\werkzeug\\wrappers\\response.py',
   'PYMODULE'),
  ('werkzeug.sansio.response',
   'C:\\Gestalabs\\Lab\\TEMP\\flaskgui\\.venv\\lib\\site-packages\\werkzeug\\sansio\\response.py',
   'PYMODULE'),
  ('werkzeug.wsgi',
   'C:\\Gestalabs\\Lab\\TEMP\\flaskgui\\.venv\\lib\\site-packages\\werkzeug\\wsgi.py',
   'PYMODULE'),
  ('werkzeug.urls',
   'C:\\Gestalabs\\Lab\\TEMP\\flaskgui\\.venv\\lib\\site-packages\\werkzeug\\urls.py',
   'PYMODULE'),
  ('werkzeug.datastructures',
   'C:\\Gestalabs\\Lab\\TEMP\\flaskgui\\.venv\\lib\\site-packages\\werkzeug\\datastructures.py',
   'PYMODULE'),
  ('werkzeug._internal',
   'C:\\Gestalabs\\Lab\\TEMP\\flaskgui\\.venv\\lib\\site-packages\\werkzeug\\_internal.py',
   'PYMODULE'),
  ('colorama',
   'C:\\Gestalabs\\Lab\\TEMP\\flaskgui\\.venv\\lib\\site-packages\\colorama\\__init__.py',
   'PYMODULE'),
  ('colorama.ansitowin32',
   'C:\\Gestalabs\\Lab\\TEMP\\flaskgui\\.venv\\lib\\site-packages\\colorama\\ansitowin32.py',
   'PYMODULE'),
  ('colorama.winterm',
   'C:\\Gestalabs\\Lab\\TEMP\\flaskgui\\.venv\\lib\\site-packages\\colorama\\winterm.py',
   'PYMODULE'),
  ('colorama.ansi',
   'C:\\Gestalabs\\Lab\\TEMP\\flaskgui\\.venv\\lib\\site-packages\\colorama\\ansi.py',
   'PYMODULE'),
  ('colorama.initialise',
   'C:\\Gestalabs\\Lab\\TEMP\\flaskgui\\.venv\\lib\\site-packages\\colorama\\initialise.py',
   'PYMODULE'),
  ('colorama.win32',
   'C:\\Gestalabs\\Lab\\TEMP\\flaskgui\\.venv\\lib\\site-packages\\colorama\\win32.py',
   'PYMODULE'),
  ('typing_extensions',
   'C:\\Gestalabs\\Lab\\TEMP\\flaskgui\\.venv\\lib\\site-packages\\typing_extensions.py',
   'PYMODULE'),
  ('werkzeug.wrappers',
   'C:\\Gestalabs\\Lab\\TEMP\\flaskgui\\.venv\\lib\\site-packages\\werkzeug\\wrappers\\__init__.py',
   'PYMODULE'),
  ('werkzeug.wrappers.user_agent',
   'C:\\Gestalabs\\Lab\\TEMP\\flaskgui\\.venv\\lib\\site-packages\\werkzeug\\wrappers\\user_agent.py',
   'PYMODULE'),
  ('werkzeug.wrappers.etag',
   'C:\\Gestalabs\\Lab\\TEMP\\flaskgui\\.venv\\lib\\site-packages\\werkzeug\\wrappers\\etag.py',
   'PYMODULE'),
  ('werkzeug.wrappers.common_descriptors',
   'C:\\Gestalabs\\Lab\\TEMP\\flaskgui\\.venv\\lib\\site-packages\\werkzeug\\wrappers\\common_descriptors.py',
   'PYMODULE'),
  ('werkzeug.wrappers.base_response',
   'C:\\Gestalabs\\Lab\\TEMP\\flaskgui\\.venv\\lib\\site-packages\\werkzeug\\wrappers\\base_response.py',
   'PYMODULE'),
  ('werkzeug.wrappers.base_request',
   'C:\\Gestalabs\\Lab\\TEMP\\flaskgui\\.venv\\lib\\site-packages\\werkzeug\\wrappers\\base_request.py',
   'PYMODULE'),
  ('werkzeug.wrappers.auth',
   'C:\\Gestalabs\\Lab\\TEMP\\flaskgui\\.venv\\lib\\site-packages\\werkzeug\\wrappers\\auth.py',
   'PYMODULE'),
  ('werkzeug.wrappers.accept',
   'C:\\Gestalabs\\Lab\\TEMP\\flaskgui\\.venv\\lib\\site-packages\\werkzeug\\wrappers\\accept.py',
   'PYMODULE'),
  ('flask.typing',
   'C:\\Gestalabs\\Lab\\TEMP\\flaskgui\\.venv\\lib\\site-packages\\flask\\typing.py',
   'PYMODULE'),
  ('json',
   'c:\\users\\gl\\appdata\\local\\programs\\python\\python37\\lib\\json\\__init__.py',
   'PYMODULE'),
  ('json.encoder',
   'c:\\users\\gl\\appdata\\local\\programs\\python\\python37\\lib\\json\\encoder.py',
   'PYMODULE'),
  ('json.decoder',
   'c:\\users\\gl\\appdata\\local\\programs\\python\\python37\\lib\\json\\decoder.py',
   'PYMODULE'),
  ('json.scanner',
   'c:\\users\\gl\\appdata\\local\\programs\\python\\python37\\lib\\json\\scanner.py',
   'PYMODULE'),
  ('jinja2',
   'C:\\Gestalabs\\Lab\\TEMP\\flaskgui\\.venv\\lib\\site-packages\\jinja2\\__init__.py',
   'PYMODULE'),
  ('jinja2.ext',
   'C:\\Gestalabs\\Lab\\TEMP\\flaskgui\\.venv\\lib\\site-packages\\jinja2\\ext.py',
   'PYMODULE'),
  ('jinja2.parser',
   'C:\\Gestalabs\\Lab\\TEMP\\flaskgui\\.venv\\lib\\site-packages\\jinja2\\parser.py',
   'PYMODULE'),
  ('jinja2.lexer',
   'C:\\Gestalabs\\Lab\\TEMP\\flaskgui\\.venv\\lib\\site-packages\\jinja2\\lexer.py',
   'PYMODULE'),
  ('jinja2._identifier',
   'C:\\Gestalabs\\Lab\\TEMP\\flaskgui\\.venv\\lib\\site-packages\\jinja2\\_identifier.py',
   'PYMODULE'),
  ('jinja2.defaults',
   'C:\\Gestalabs\\Lab\\TEMP\\flaskgui\\.venv\\lib\\site-packages\\jinja2\\defaults.py',
   'PYMODULE'),
  ('jinja2.tests',
   'C:\\Gestalabs\\Lab\\TEMP\\flaskgui\\.venv\\lib\\site-packages\\jinja2\\tests.py',
   'PYMODULE'),
  ('jinja2.utils',
   'C:\\Gestalabs\\Lab\\TEMP\\flaskgui\\.venv\\lib\\site-packages\\jinja2\\utils.py',
   'PYMODULE'),
  ('jinja2.constants',
   'C:\\Gestalabs\\Lab\\TEMP\\flaskgui\\.venv\\lib\\site-packages\\jinja2\\constants.py',
   'PYMODULE'),
  ('jinja2.runtime',
   'C:\\Gestalabs\\Lab\\TEMP\\flaskgui\\.venv\\lib\\site-packages\\jinja2\\runtime.py',
   'PYMODULE'),
  ('jinja2.async_utils',
   'C:\\Gestalabs\\Lab\\TEMP\\flaskgui\\.venv\\lib\\site-packages\\jinja2\\async_utils.py',
   'PYMODULE'),
  ('jinja2.loaders',
   'C:\\Gestalabs\\Lab\\TEMP\\flaskgui\\.venv\\lib\\site-packages\\jinja2\\loaders.py',
   'PYMODULE'),
  ('jinja2.filters',
   'C:\\Gestalabs\\Lab\\TEMP\\flaskgui\\.venv\\lib\\site-packages\\jinja2\\filters.py',
   'PYMODULE'),
  ('jinja2.sandbox',
   'C:\\Gestalabs\\Lab\\TEMP\\flaskgui\\.venv\\lib\\site-packages\\jinja2\\sandbox.py',
   'PYMODULE'),
  ('jinja2.exceptions',
   'C:\\Gestalabs\\Lab\\TEMP\\flaskgui\\.venv\\lib\\site-packages\\jinja2\\exceptions.py',
   'PYMODULE'),
  ('jinja2.environment',
   'C:\\Gestalabs\\Lab\\TEMP\\flaskgui\\.venv\\lib\\site-packages\\jinja2\\environment.py',
   'PYMODULE'),
  ('asyncio',
   'c:\\users\\gl\\appdata\\local\\programs\\python\\python37\\lib\\asyncio\\__init__.py',
   'PYMODULE'),
  ('asyncio.unix_events',
   'c:\\users\\gl\\appdata\\local\\programs\\python\\python37\\lib\\asyncio\\unix_events.py',
   'PYMODULE'),
  ('asyncio.log',
   'c:\\users\\gl\\appdata\\local\\programs\\python\\python37\\lib\\asyncio\\log.py',
   'PYMODULE'),
  ('asyncio.windows_events',
   'c:\\users\\gl\\appdata\\local\\programs\\python\\python37\\lib\\asyncio\\windows_events.py',
   'PYMODULE'),
  ('asyncio.windows_utils',
   'c:\\users\\gl\\appdata\\local\\programs\\python\\python37\\lib\\asyncio\\windows_utils.py',
   'PYMODULE'),
  ('asyncio.selector_events',
   'c:\\users\\gl\\appdata\\local\\programs\\python\\python37\\lib\\asyncio\\selector_events.py',
   'PYMODULE'),
  ('asyncio.proactor_events',
   'c:\\users\\gl\\appdata\\local\\programs\\python\\python37\\lib\\asyncio\\proactor_events.py',
   'PYMODULE'),
  ('asyncio.base_subprocess',
   'c:\\users\\gl\\appdata\\local\\programs\\python\\python37\\lib\\asyncio\\base_subprocess.py',
   'PYMODULE'),
  ('asyncio.subprocess',
   'c:\\users\\gl\\appdata\\local\\programs\\python\\python37\\lib\\asyncio\\subprocess.py',
   'PYMODULE'),
  ('asyncio.streams',
   'c:\\users\\gl\\appdata\\local\\programs\\python\\python37\\lib\\asyncio\\streams.py',
   'PYMODULE'),
  ('asyncio.queues',
   'c:\\users\\gl\\appdata\\local\\programs\\python\\python37\\lib\\asyncio\\queues.py',
   'PYMODULE'),
  ('asyncio.runners',
   'c:\\users\\gl\\appdata\\local\\programs\\python\\python37\\lib\\asyncio\\runners.py',
   'PYMODULE'),
  ('asyncio.tasks',
   'c:\\users\\gl\\appdata\\local\\programs\\python\\python37\\lib\\asyncio\\tasks.py',
   'PYMODULE'),
  ('concurrent.futures',
   'c:\\users\\gl\\appdata\\local\\programs\\python\\python37\\lib\\concurrent\\futures\\__init__.py',
   'PYMODULE'),
  ('concurrent.futures.thread',
   'c:\\users\\gl\\appdata\\local\\programs\\python\\python37\\lib\\concurrent\\futures\\thread.py',
   'PYMODULE'),
  ('concurrent.futures.process',
   'c:\\users\\gl\\appdata\\local\\programs\\python\\python37\\lib\\concurrent\\futures\\process.py',
   'PYMODULE'),
  ('concurrent.futures._base',
   'c:\\users\\gl\\appdata\\local\\programs\\python\\python37\\lib\\concurrent\\futures\\_base.py',
   'PYMODULE'),
  ('concurrent',
   'c:\\users\\gl\\appdata\\local\\programs\\python\\python37\\lib\\concurrent\\__init__.py',
   'PYMODULE'),
  ('asyncio.locks',
   'c:\\users\\gl\\appdata\\local\\programs\\python\\python37\\lib\\asyncio\\locks.py',
   'PYMODULE'),
  ('asyncio.base_tasks',
   'c:\\users\\gl\\appdata\\local\\programs\\python\\python37\\lib\\asyncio\\base_tasks.py',
   'PYMODULE'),
  ('asyncio.sslproto',
   'c:\\users\\gl\\appdata\\local\\programs\\python\\python37\\lib\\asyncio\\sslproto.py',
   'PYMODULE'),
  ('asyncio.transports',
   'c:\\users\\gl\\appdata\\local\\programs\\python\\python37\\lib\\asyncio\\transports.py',
   'PYMODULE'),
  ('asyncio.base_events',
   'c:\\users\\gl\\appdata\\local\\programs\\python\\python37\\lib\\asyncio\\base_events.py',
   'PYMODULE'),
  ('asyncio.protocols',
   'c:\\users\\gl\\appdata\\local\\programs\\python\\python37\\lib\\asyncio\\protocols.py',
   'PYMODULE'),
  ('asyncio.futures',
   'c:\\users\\gl\\appdata\\local\\programs\\python\\python37\\lib\\asyncio\\futures.py',
   'PYMODULE'),
  ('asyncio.events',
   'c:\\users\\gl\\appdata\\local\\programs\\python\\python37\\lib\\asyncio\\events.py',
   'PYMODULE'),
  ('asyncio.coroutines',
   'c:\\users\\gl\\appdata\\local\\programs\\python\\python37\\lib\\asyncio\\coroutines.py',
   'PYMODULE'),
  ('asyncio.base_futures',
   'c:\\users\\gl\\appdata\\local\\programs\\python\\python37\\lib\\asyncio\\base_futures.py',
   'PYMODULE'),
  ('asyncio.format_helpers',
   'c:\\users\\gl\\appdata\\local\\programs\\python\\python37\\lib\\asyncio\\format_helpers.py',
   'PYMODULE'),
  ('asyncio.constants',
   'c:\\users\\gl\\appdata\\local\\programs\\python\\python37\\lib\\asyncio\\constants.py',
   'PYMODULE'),
  ('jinja2.debug',
   'C:\\Gestalabs\\Lab\\TEMP\\flaskgui\\.venv\\lib\\site-packages\\jinja2\\debug.py',
   'PYMODULE'),
  ('jinja2.compiler',
   'C:\\Gestalabs\\Lab\\TEMP\\flaskgui\\.venv\\lib\\site-packages\\jinja2\\compiler.py',
   'PYMODULE'),
  ('jinja2.visitor',
   'C:\\Gestalabs\\Lab\\TEMP\\flaskgui\\.venv\\lib\\site-packages\\jinja2\\visitor.py',
   'PYMODULE'),
  ('jinja2.optimizer',
   'C:\\Gestalabs\\Lab\\TEMP\\flaskgui\\.venv\\lib\\site-packages\\jinja2\\optimizer.py',
   'PYMODULE'),
  ('jinja2.idtracking',
   'C:\\Gestalabs\\Lab\\TEMP\\flaskgui\\.venv\\lib\\site-packages\\jinja2\\idtracking.py',
   'PYMODULE'),
  ('jinja2.bccache',
   'C:\\Gestalabs\\Lab\\TEMP\\flaskgui\\.venv\\lib\\site-packages\\jinja2\\bccache.py',
   'PYMODULE'),
  ('jinja2.nodes',
   'C:\\Gestalabs\\Lab\\TEMP\\flaskgui\\.venv\\lib\\site-packages\\jinja2\\nodes.py',
   'PYMODULE'),
  ('flask.signals',
   'C:\\Gestalabs\\Lab\\TEMP\\flaskgui\\.venv\\lib\\site-packages\\flask\\signals.py',
   'PYMODULE'),
  ('flask.helpers',
   'C:\\Gestalabs\\Lab\\TEMP\\flaskgui\\.venv\\lib\\site-packages\\flask\\helpers.py',
   'PYMODULE'),
  ('flask.globals',
   'C:\\Gestalabs\\Lab\\TEMP\\flaskgui\\.venv\\lib\\site-packages\\flask\\globals.py',
   'PYMODULE'),
  ('flask.sessions',
   'C:\\Gestalabs\\Lab\\TEMP\\flaskgui\\.venv\\lib\\site-packages\\flask\\sessions.py',
   'PYMODULE'),
  ('flask.json.tag',
   'C:\\Gestalabs\\Lab\\TEMP\\flaskgui\\.venv\\lib\\site-packages\\flask\\json\\tag.py',
   'PYMODULE'),
  ('itsdangerous',
   'C:\\Gestalabs\\Lab\\TEMP\\flaskgui\\.venv\\lib\\site-packages\\itsdangerous\\__init__.py',
   'PYMODULE'),
  ('itsdangerous.url_safe',
   'C:\\Gestalabs\\Lab\\TEMP\\flaskgui\\.venv\\lib\\site-packages\\itsdangerous\\url_safe.py',
   'PYMODULE'),
  ('itsdangerous.timed',
   'C:\\Gestalabs\\Lab\\TEMP\\flaskgui\\.venv\\lib\\site-packages\\itsdangerous\\timed.py',
   'PYMODULE'),
  ('itsdangerous.signer',
   'C:\\Gestalabs\\Lab\\TEMP\\flaskgui\\.venv\\lib\\site-packages\\itsdangerous\\signer.py',
   'PYMODULE'),
  ('itsdangerous.serializer',
   'C:\\Gestalabs\\Lab\\TEMP\\flaskgui\\.venv\\lib\\site-packages\\itsdangerous\\serializer.py',
   'PYMODULE'),
  ('itsdangerous.jws',
   'C:\\Gestalabs\\Lab\\TEMP\\flaskgui\\.venv\\lib\\site-packages\\itsdangerous\\jws.py',
   'PYMODULE'),
  ('itsdangerous.exc',
   'C:\\Gestalabs\\Lab\\TEMP\\flaskgui\\.venv\\lib\\site-packages\\itsdangerous\\exc.py',
   'PYMODULE'),
  ('itsdangerous.encoding',
   'C:\\Gestalabs\\Lab\\TEMP\\flaskgui\\.venv\\lib\\site-packages\\itsdangerous\\encoding.py',
   'PYMODULE'),
  ('itsdangerous._json',
   'C:\\Gestalabs\\Lab\\TEMP\\flaskgui\\.venv\\lib\\site-packages\\itsdangerous\\_json.py',
   'PYMODULE'),
  ('flask.ctx',
   'C:\\Gestalabs\\Lab\\TEMP\\flaskgui\\.venv\\lib\\site-packages\\flask\\ctx.py',
   'PYMODULE'),
  ('flask.config',
   'C:\\Gestalabs\\Lab\\TEMP\\flaskgui\\.venv\\lib\\site-packages\\flask\\config.py',
   'PYMODULE'),
  ('flask.blueprints',
   'C:\\Gestalabs\\Lab\\TEMP\\flaskgui\\.venv\\lib\\site-packages\\flask\\blueprints.py',
   'PYMODULE'),
  ('flask.app',
   'C:\\Gestalabs\\Lab\\TEMP\\flaskgui\\.venv\\lib\\site-packages\\flask\\app.py',
   'PYMODULE'),
  ('flask.testing',
   'C:\\Gestalabs\\Lab\\TEMP\\flaskgui\\.venv\\lib\\site-packages\\flask\\testing.py',
   'PYMODULE'),
  ('click.testing',
   'C:\\Gestalabs\\Lab\\TEMP\\flaskgui\\.venv\\lib\\site-packages\\click\\testing.py',
   'PYMODULE'),
  ('click.core',
   'C:\\Gestalabs\\Lab\\TEMP\\flaskgui\\.venv\\lib\\site-packages\\click\\core.py',
   'PYMODULE'),
  ('click.decorators',
   'C:\\Gestalabs\\Lab\\TEMP\\flaskgui\\.venv\\lib\\site-packages\\click\\decorators.py',
   'PYMODULE'),
  ('importlib_metadata',
   'C:\\Gestalabs\\Lab\\TEMP\\flaskgui\\.venv\\lib\\site-packages\\importlib_metadata\\__init__.py',
   'PYMODULE'),
  ('importlib_metadata._itertools',
   'C:\\Gestalabs\\Lab\\TEMP\\flaskgui\\.venv\\lib\\site-packages\\importlib_metadata\\_itertools.py',
   'PYMODULE'),
  ('importlib_metadata._functools',
   'C:\\Gestalabs\\Lab\\TEMP\\flaskgui\\.venv\\lib\\site-packages\\importlib_metadata\\_functools.py',
   'PYMODULE'),
  ('importlib_metadata._compat',
   'C:\\Gestalabs\\Lab\\TEMP\\flaskgui\\.venv\\lib\\site-packages\\importlib_metadata\\_compat.py',
   'PYMODULE'),
  ('importlib_metadata._collections',
   'C:\\Gestalabs\\Lab\\TEMP\\flaskgui\\.venv\\lib\\site-packages\\importlib_metadata\\_collections.py',
   'PYMODULE'),
  ('importlib_metadata._meta',
   'C:\\Gestalabs\\Lab\\TEMP\\flaskgui\\.venv\\lib\\site-packages\\importlib_metadata\\_meta.py',
   'PYMODULE'),
  ('importlib_metadata._adapters',
   'C:\\Gestalabs\\Lab\\TEMP\\flaskgui\\.venv\\lib\\site-packages\\importlib_metadata\\_adapters.py',
   'PYMODULE'),
  ('importlib_metadata._text',
   'C:\\Gestalabs\\Lab\\TEMP\\flaskgui\\.venv\\lib\\site-packages\\importlib_metadata\\_text.py',
   'PYMODULE'),
  ('zipp',
   'C:\\Gestalabs\\Lab\\TEMP\\flaskgui\\.venv\\lib\\site-packages\\zipp.py',
   'PYMODULE'),
  ('csv',
   'c:\\users\\gl\\appdata\\local\\programs\\python\\python37\\lib\\csv.py',
   'PYMODULE'),
  ('click.shell_completion',
   'C:\\Gestalabs\\Lab\\TEMP\\flaskgui\\.venv\\lib\\site-packages\\click\\shell_completion.py',
   'PYMODULE'),
  ('click.parser',
   'C:\\Gestalabs\\Lab\\TEMP\\flaskgui\\.venv\\lib\\site-packages\\click\\parser.py',
   'PYMODULE'),
  ('click.globals',
   'C:\\Gestalabs\\Lab\\TEMP\\flaskgui\\.venv\\lib\\site-packages\\click\\globals.py',
   'PYMODULE'),
  ('click.exceptions',
   'C:\\Gestalabs\\Lab\\TEMP\\flaskgui\\.venv\\lib\\site-packages\\click\\exceptions.py',
   'PYMODULE'),
  ('click._unicodefun',
   'C:\\Gestalabs\\Lab\\TEMP\\flaskgui\\.venv\\lib\\site-packages\\click\\_unicodefun.py',
   'PYMODULE'),
  ('click.types',
   'C:\\Gestalabs\\Lab\\TEMP\\flaskgui\\.venv\\lib\\site-packages\\click\\types.py',
   'PYMODULE'),
  ('click._compat',
   'C:\\Gestalabs\\Lab\\TEMP\\flaskgui\\.venv\\lib\\site-packages\\click\\_compat.py',
   'PYMODULE'),
  ('click._winconsole',
   'C:\\Gestalabs\\Lab\\TEMP\\flaskgui\\.venv\\lib\\site-packages\\click\\_winconsole.py',
   'PYMODULE'),
  ('click.utils',
   'C:\\Gestalabs\\Lab\\TEMP\\flaskgui\\.venv\\lib\\site-packages\\click\\utils.py',
   'PYMODULE'),
  ('click.termui',
   'C:\\Gestalabs\\Lab\\TEMP\\flaskgui\\.venv\\lib\\site-packages\\click\\termui.py',
   'PYMODULE'),
  ('click._termui_impl',
   'C:\\Gestalabs\\Lab\\TEMP\\flaskgui\\.venv\\lib\\site-packages\\click\\_termui_impl.py',
   'PYMODULE'),
  ('click.formatting',
   'C:\\Gestalabs\\Lab\\TEMP\\flaskgui\\.venv\\lib\\site-packages\\click\\formatting.py',
   'PYMODULE'),
  ('click._textwrap',
   'C:\\Gestalabs\\Lab\\TEMP\\flaskgui\\.venv\\lib\\site-packages\\click\\_textwrap.py',
   'PYMODULE'),
  ('click',
   'C:\\Gestalabs\\Lab\\TEMP\\flaskgui\\.venv\\lib\\site-packages\\click\\__init__.py',
   'PYMODULE'),
  ('flask.logging',
   'C:\\Gestalabs\\Lab\\TEMP\\flaskgui\\.venv\\lib\\site-packages\\flask\\logging.py',
   'PYMODULE'),
  ('flask.cli',
   'C:\\Gestalabs\\Lab\\TEMP\\flaskgui\\.venv\\lib\\site-packages\\flask\\cli.py',
   'PYMODULE'),
  ('rlcompleter',
   'c:\\users\\gl\\appdata\\local\\programs\\python\\python37\\lib\\rlcompleter.py',
   'PYMODULE'),
  ('flask.json',
   'C:\\Gestalabs\\Lab\\TEMP\\flaskgui\\.venv\\lib\\site-packages\\flask\\json\\__init__.py',
   'PYMODULE'),
  ('werkzeug.utils',
   'C:\\Gestalabs\\Lab\\TEMP\\flaskgui\\.venv\\lib\\site-packages\\werkzeug\\utils.py',
   'PYMODULE'),
  ('werkzeug.exceptions',
   'C:\\Gestalabs\\Lab\\TEMP\\flaskgui\\.venv\\lib\\site-packages\\werkzeug\\exceptions.py',
   'PYMODULE'),
  ('markupsafe',
   'C:\\Gestalabs\\Lab\\TEMP\\flaskgui\\.venv\\lib\\site-packages\\markupsafe\\__init__.py',
   'PYMODULE'),
  ('markupsafe._native',
   'C:\\Gestalabs\\Lab\\TEMP\\flaskgui\\.venv\\lib\\site-packages\\markupsafe\\_native.py',
   'PYMODULE')])
